%YAML 1.1
%TAG !u! tag:unity3d.com,2011:
--- !u!1045 &1
EditorBuildSettings:
  m_ObjectHideFlags: 0
  serializedVersion: 2
  m_Scenes:
  - enabled: 1
    path: Assets/Scenes/Awake.unity
    guid: 541ca95a0bae141eab893f1315d9bd86
  - enabled: 1
    path: Assets/Scenes/stoneGame.unity
    guid: 914e06736fe52489783020c095bf64bf
  - enabled: 1
    path: Assets/Scenes/Final.unity
    guid: 0f90af0fdb12e45d0abe849e55e135af
  m_configObjects: {}
